[api-updater (non-obsolete-error-filter)] 19.10.2021 14:39:11 : Starting D:/Program Files (x86)/Unity/2020.3.14f1/Editor/Data/Tools/ScriptUpdater/APIUpdater.NonObsoleteApiUpdaterDetector.exe
[api-updater (non-obsolete-error-filter)] 
----------------------------------
jit/startup time      : 947,9367ms
moved types parse time: 57ms
candidates parse time : 1ms
C# parse time         : 717ms
candidates check time : 45ms
console write time    : 0ms

[api-updater (non-obsolete-error-filter)] 19.10.2021 16:11:55 : Starting D:/Program Files (x86)/Unity/2020.3.14f1/Editor/Data/Tools/ScriptUpdater/APIUpdater.NonObsoleteApiUpdaterDetector.exe
[api-updater (non-obsolete-error-filter)] 
----------------------------------
jit/startup time      : 114,2868ms
moved types parse time: 57ms
candidates parse time : 1ms
C# parse time         : 213ms
candidates check time : 46ms
console write time    : 0ms

[api-updater (non-obsolete-error-filter)] 19.10.2021 16:12:26 : Starting D:/Program Files (x86)/Unity/2020.3.14f1/Editor/Data/Tools/ScriptUpdater/APIUpdater.NonObsoleteApiUpdaterDetector.exe
[api-updater (non-obsolete-error-filter)] 
----------------------------------
jit/startup time      : 57,0128ms
moved types parse time: 56ms
candidates parse time : 1ms
C# parse time         : 217ms
candidates check time : 45ms
console write time    : 0ms

[api-updater (non-obsolete-error-filter)] 19.10.2021 16:15:26 : Starting D:/Program Files (x86)/Unity/2020.3.14f1/Editor/Data/Tools/ScriptUpdater/APIUpdater.NonObsoleteApiUpdaterDetector.exe
[api-updater (non-obsolete-error-filter)] 
----------------------------------
jit/startup time      : 55,0102ms
moved types parse time: 54ms
candidates parse time : 1ms
C# parse time         : 207ms
candidates check time : 44ms
console write time    : 0ms

[api-updater (non-obsolete-error-filter)] 19.10.2021 16:15:33 : Starting D:/Program Files (x86)/Unity/2020.3.14f1/Editor/Data/Tools/ScriptUpdater/APIUpdater.NonObsoleteApiUpdaterDetector.exe
[api-updater (non-obsolete-error-filter)] 
----------------------------------
jit/startup time      : 57,0128ms
moved types parse time: 54ms
candidates parse time : 1ms
C# parse time         : 203ms
candidates check time : 37ms
console write time    : 0ms

[api-updater (non-obsolete-error-filter)] 19.10.2021 16:16:03 : Starting D:/Program Files (x86)/Unity/2020.3.14f1/Editor/Data/Tools/ScriptUpdater/APIUpdater.NonObsoleteApiUpdaterDetector.exe
[api-updater (non-obsolete-error-filter)] 
----------------------------------
jit/startup time      : 56,012ms
moved types parse time: 54ms
candidates parse time : 1ms
C# parse time         : 212ms
candidates check time : 31ms
console write time    : 0ms

[api-updater (non-obsolete-error-filter)] 19.10.2021 17:14:35 : Starting D:/Program Files (x86)/Unity/2020.3.14f1/Editor/Data/Tools/ScriptUpdater/APIUpdater.NonObsoleteApiUpdaterDetector.exe
[api-updater (non-obsolete-error-filter)] 
----------------------------------
jit/startup time      : 54,9204ms
moved types parse time: 55ms
candidates parse time : 1ms
C# parse time         : 204ms
candidates check time : 45ms
console write time    : 0ms

[api-updater (non-obsolete-error-filter)] 19.10.2021 17:14:45 : Starting D:/Program Files (x86)/Unity/2020.3.14f1/Editor/Data/Tools/ScriptUpdater/APIUpdater.NonObsoleteApiUpdaterDetector.exe
[api-updater (non-obsolete-error-filter)] 
----------------------------------
jit/startup time      : 56,0126ms
moved types parse time: 58ms
candidates parse time : 1ms
C# parse time         : 202ms
candidates check time : 49ms
console write time    : 0ms

[api-updater (non-obsolete-error-filter)] 24.10.2021 23:39:45 : Starting D:/Program Files (x86)/Unity/2020.3.14f1/Editor/Data/Tools/ScriptUpdater/APIUpdater.NonObsoleteApiUpdaterDetector.exe
[api-updater (non-obsolete-error-filter)] 
----------------------------------
jit/startup time      : 952,7199ms
moved types parse time: 57ms
candidates parse time : 1ms
C# parse time         : 652ms
candidates check time : 28ms
console write time    : 0ms

[api-updater (non-obsolete-error-filter)] 02.11.2021 19:53:50 : Starting D:/Program Files (x86)/Unity/2020.3.14f1/Editor/Data/Tools/ScriptUpdater/APIUpdater.NonObsoleteApiUpdaterDetector.exe
[api-updater (non-obsolete-error-filter)] 
----------------------------------
jit/startup time      : 892,5343ms
moved types parse time: 56ms
candidates parse time : 1ms
C# parse time         : 669ms
candidates check time : 47ms
console write time    : 0ms

[api-updater (non-obsolete-error-filter)] 03.11.2021 17:47:57 : Starting D:/Program Files (x86)/Unity/2020.3.14f1/Editor/Data/Tools/ScriptUpdater/APIUpdater.NonObsoleteApiUpdaterDetector.exe
[api-updater (non-obsolete-error-filter)] 
----------------------------------
jit/startup time      : 1003,0484ms
moved types parse time: 55ms
candidates parse time : 1ms
C# parse time         : 707ms
candidates check time : 44ms
console write time    : 0ms

